{
    "licenses": [
        {
            "name": "PackageManager/Server",
            "oss_licenses": "Undefined",
            "provenance": "git@github.cds.internal.unity3d.com:unity/license-validation",
            "license": "@genesis/license-validation | Undefined License",
            "purpose": "License validation lib"
        },
        {
            "name": "PackageManager/Server",
            "oss_licenses": "BSD-3-Clause",
            "provenance": "https://github.com/hapijs/address",
            "license": "@hapi/address | BSD-3-Clause License\nCopyright (c) 2019-2020, Project contributors. All rights reserved.",
            "purpose": "Email address and domain validation"
        },
        {
            "name": "PackageManager/Server",
            "oss_licenses": "BSD-3-Clause",
            "provenance": "https://github.com/hapijs/formula",
            "license": "@hapi/formula | BSD-3-Clause License\nCopyright (c) 2019, Project contributors. All rights reserved.",
            "purpose": "Math and string formula parser."
        },
        {
            "name": "PackageManager/Server",
            "oss_licenses": "BSD-3-Clause",
            "provenance": "https://github.com/hapijs/hoek",
            "license": "@hapi/hoek | BSD-3-Clause License\nCopyright (c) 2011-2020, Sideway Inc, and project contributors  . Copyright (c) 2011-2014, Walmart  . Copyright (c) 2011, Yahoo Inc.",
            "purpose": "General purpose node utilities"
        },
        {
            "name": "PackageManager/Server",
            "oss_licenses": "BSD-3-Clause",
            "provenance": "https://github.com/hapijs/joi",
            "license": "@hapi/joi | BSD-3-Clause License\nCopyright (c) 2012-2020, Sideway Inc, and project contributors. Copyright (c) 2012-2014, Walmart.. All rights reserved.",
            "purpose": "Object schema validation"
        },
        {
            "name": "PackageManager/Server",
            "oss_licenses": "BSD-3-Clause",
            "provenance": "https://github.com/hapijs/pinpoint",
            "license": "@hapi/pinpoint | BSD-3-Clause License\nCopyright (c) 2019-2020, Sideway Inc, and project contributors",
            "purpose": "Return the filename and line number of the calling function"
        },
        {
            "name": "PackageManager/Server",
            "oss_licenses": "BSD-3-Clause",
            "provenance": "https://github.com/hapijs/topo",
            "license": "@hapi/topo | BSD-3-Clause License\nCopyright (c) 2012-2020, Sideway Inc, and project contributors  . Copyright (c) 2012-2014, Walmart.  . All rights reserved.",
            "purpose": "Topological sorting with grouping support"
        },
        {
            "name": "PackageManager/Server",
            "oss_licenses": "ISC",
            "provenance": "https://github.com/iarna/iarna-toml",
            "license": "@iarna/toml | ISC License\nCopyright (c) 2016, Rebecca Turner <me@re-becca.org>",
            "purpose": "Better TOML parsing and stringifying all in that familiar JSON interface."
        },
        {
            "name": "PackageManager/Server",
            "oss_licenses": "MIT",
            "provenance": "https://github.com/treelinehq/lodash",
            "license": "@sailshq/lodash | MIT License",
            "purpose": "A fork of Lodash 3.10.x with ongoing maintenance from the Sails core team."
        },
        {
            "name": "PackageManager/Server",
            "oss_licenses": "MIT",
            "provenance": "https://github.com/DefinitelyTyped/DefinitelyTyped",
            "license": "@types/events | MIT License",
            "purpose": "TypeScript definitions for events"
        },
        {
            "name": "PackageManager/Server",
            "oss_licenses": "MIT",
            "provenance": "https://github.com/DefinitelyTyped/DefinitelyTyped",
            "license": "@types/glob | MIT License",
            "purpose": "TypeScript definitions for Glob"
        },
        {
            "name": "PackageManager/Server",
            "oss_licenses": "MIT",
            "provenance": "https://github.com/DefinitelyTyped/DefinitelyTyped",
            "license": "@types/minimatch | MIT License",
            "purpose": "TypeScript definitions for Minimatch"
        },
        {
            "name": "PackageManager/Server",
            "oss_licenses": "MIT",
            "provenance": "https://github.com/DefinitelyTyped/DefinitelyTyped",
            "license": "@types/node | MIT License",
            "purpose": "TypeScript definitions for Node.js"
        },
        {
            "name": "PackageManager/Server",
            "oss_licenses": "Custom: https://github.cds.internal.unity3d.com/unity/upm",
            "provenance": "https://github.cds.internal.unity3d.com/unity/upm-core",
            "license": "@upm/core | Custom: https://github.cds.internal.unity3d.com/unity/upm License\nCopyright © 2017 Unity Technologies ApS (\"**_Unity_**\")",
            "purpose": "The Official Unity Package Manager as a JavaScript library"
        },
        {
            "name": "PackageManager/Server",
            "oss_licenses": "MIT",
            "provenance": "https://github.com/epoberezkin/ajv",
            "license": "ajv | MIT License\nCopyright (c) 2015-2017 Evgeny Poberezkin",
            "purpose": "Another JSON Schema Validator"
        },
        {
            "name": "PackageManager/Server",
            "oss_licenses": "MIT",
            "provenance": "https://github.com/LinusU/node-append-field",
            "license": "append-field | MIT License\nCopyright (c) 2015 Linus Unnebäck",
            "purpose": "A [W3C HTML JSON forms spec](http://www.w3.org/TR/html-json-forms/) compliant field appender (for lack of a better name). Useful for people implementing `application/x-www-form-urlencoded` and `multipart/form-data` parsers."
        },
        {
            "name": "PackageManager/Server",
            "oss_licenses": "MIT",
            "provenance": "https://github.com/nodeca/argparse",
            "license": "argparse | MIT License\nCopyright (C) 2012 by Vitaly Puzrin",
            "purpose": "Very powerful CLI arguments parser. Native port of argparse - python's options parsing library"
        },
        {
            "name": "PackageManager/Server",
            "oss_licenses": "MIT",
            "provenance": "https://github.com/joyent/node-asn1",
            "license": "asn1 | MIT License\nCopyright (c) 2011 Mark Cavage, All rights reserved.",
            "purpose": "Contains parsers and serializers for ASN.1 (currently BER only)"
        },
        {
            "name": "PackageManager/Server",
            "oss_licenses": "MIT",
            "provenance": "https://github.com/mcavage/node-assert-plus",
            "license": "assert-plus | MIT License",
            "purpose": "Extra assertions on top of node's assert module"
        },
        {
            "name": "PackageManager/Server",
            "oss_licenses": "MIT",
            "provenance": "https://github.com/caolan/async",
            "license": "async | MIT License\nCopyright (c) 2010-2014 Caolan McMahon",
            "purpose": "Higher-order functions and common patterns for asynchronous code"
        },
        {
            "name": "PackageManager/Server",
            "oss_licenses": "MIT",
            "provenance": "https://github.com/caolan/async",
            "license": "async | MIT License\nCopyright (c) 2010-2014 Caolan McMahon",
            "purpose": "Higher-order functions and common patterns for asynchronous code"
        },
        {
            "name": "PackageManager/Server",
            "oss_licenses": "MIT",
            "provenance": "https://github.com/caolan/async",
            "license": "async | MIT License\nCopyright (c) 2010-2018 Caolan McMahon",
            "purpose": "Higher-order functions and common patterns for asynchronous code"
        },
        {
            "name": "PackageManager/Server",
            "oss_licenses": "MIT",
            "provenance": "https://github.com/alexindigo/asynckit",
            "license": "asynckit | MIT License\nCopyright (c) 2016 Alex Indigo",
            "purpose": "Minimal async jobs utility library, with streams support"
        },
        {
            "name": "PackageManager/Server",
            "oss_licenses": "MIT",
            "provenance": "https://github.com/jonschlinkert/author-regex",
            "license": "author-regex | MIT License\nCopyright (c) 2014 Jon Schlinkert, contributors.",
            "purpose": "Regular expression for parsing an `author` string into an object following npm conventions."
        },
        {
            "name": "PackageManager/Server",
            "oss_licenses": "Apache-2.0",
            "provenance": "https://github.com/mikeal/aws-sign",
            "license": "aws-sign2 | Apache-2.0 License",
            "purpose": "AWS signing. Originally pulled from LearnBoost/knox, maintained as vendor in request, now a standalone module."
        },
        {
            "name": "PackageManager/Server",
            "oss_licenses": "MIT",
            "provenance": "https://github.com/mhart/aws4",
            "license": "aws4 | MIT License\nCopyright 2013 Michael Hart (michael.hart.au@gmail.com)",
            "purpose": "Signs and prepares requests using AWS Signature Version 4"
        },
        {
            "name": "PackageManager/Server",
            "oss_licenses": "MIT",
            "provenance": "https://github.com/Qix-/node-backslash",
            "license": "backslash | MIT License\nCopyright (c) 2015 JD Ballard",
            "purpose": "parse string escapes (\\n, \\r, etc.)"
        },
        {
            "name": "PackageManager/Server",
            "oss_licenses": "MIT",
            "provenance": "https://github.com/apigee-127/bagpipes",
            "license": "bagpipes | MIT License",
            "purpose": "Less code, more flow. Let's dance!"
        },
        {
            "name": "PackageManager/Server",
            "oss_licenses": "MIT",
            "provenance": "https://github.com/juliangruber/balanced-match",
            "license": "balanced-match | MIT License\nCopyright (c) 2013 Julian Gruber &lt;julian@juliangruber.com&gt;",
            "purpose": "Match balanced character pairs, like \"{\" and \"}\""
        },
        {
            "name": "PackageManager/Server",
            "oss_licenses": "BSD-3-Clause",
            "provenance": "https://github.com/joyent/node-bcrypt-pbkdf",
            "license": "bcrypt-pbkdf | BSD-3-Clause License\nCopyright (c) 2013 Ted Unangst <tedu@openbsd.org>*",
            "purpose": "Port of the OpenBSD bcrypt_pbkdf function to pure JS"
        },
        {
            "name": "PackageManager/Server",
            "oss_licenses": "MIT",
            "provenance": "https://github.com/expressjs/body-parser",
            "license": "body-parser | MIT License\nCopyright (c) 2014 Jonathan Ong <me@jongleberry.com>. Copyright (c) 2014-2015 Douglas Christopher Wilson <doug@somethingdoug.com>",
            "purpose": "Node.js body parsing middleware"
        },
        {
            "name": "PackageManager/Server",
            "oss_licenses": "MIT",
            "provenance": "https://github.com/juliangruber/brace-expansion",
            "license": "brace-expansion | MIT License\nCopyright (c) 2013 Julian Gruber <julian@juliangruber.com>",
            "purpose": "Brace expansion as known from sh/bash"
        },
        {
            "name": "PackageManager/Server",
            "oss_licenses": "MIT",
            "provenance": "https://github.com/LinusU/buffer-from",
            "license": "buffer-from | MIT License\nCopyright (c) 2016, 2018 Linus Unnebäck",
            "purpose": "A [ponyfill](https://ponyfill.com) for `Buffer.from`, uses native implementation if available."
        },
        {
            "name": "PackageManager/Server",
            "oss_licenses": "MIT",
            "provenance": "https://github.com/mscdex/busboy",
            "license": "busboy | MIT License\nCopyright Brian White. All rights reserved.",
            "purpose": "A streaming parser for HTML form data for node.js"
        },
        {
            "name": "PackageManager/Server",
            "oss_licenses": "MIT",
            "provenance": "https://github.com/visionmedia/bytes.js",
            "license": "bytes | MIT License\nCopyright (c) 2012-2014 TJ Holowaychuk <tj@vision-media.ca>. Copyright (c) 2015 Jed Watson <jed.watson@me.com>",
            "purpose": "Utility to parse a string bytes to bytes and vice-versa"
        },
        {
            "name": "PackageManager/Server",
            "oss_licenses": "Apache-2.0",
            "provenance": "https://github.com/mikeal/caseless",
            "license": "caseless | Apache-2.0 License",
            "purpose": "Caseless object set/get/has, very useful when working with HTTP headers."
        },
        {
            "name": "PackageManager/Server",
            "oss_licenses": "MIT",
            "provenance": "https://github.com/chancejs/chancejs",
            "license": "chance | MIT License\nCopyright (c) 2015 Victor Quinn",
            "purpose": "Chance - Utility library to generate anything random"
        },
        {
            "name": "PackageManager/Server",
            "oss_licenses": "MIT",
            "provenance": "https://github.com/patrick-steele-idem/child-process-promise",
            "license": "child-process-promise | MIT License\nCopyright (c) Patrick Steele-Idem <pnidem@gmail.com> (psteeleidem.com)",
            "purpose": "Simple wrapper around the \"child_process\" module that makes use of promises"
        },
        {
            "name": "PackageManager/Server",
            "oss_licenses": "ISC",
            "provenance": "https://github.com/isaacs/chownr",
            "license": "chownr | ISC License\nCopyright (c) Isaac Z. Schlueter and Contributors",
            "purpose": "like `chown -R`"
        },
        {
            "name": "PackageManager/Server",
            "oss_licenses": "MIT",
            "provenance": "https://github.com/Marak/colors.js",
            "license": "colors | MIT License",
            "purpose": "get colors in your node.js console"
        },
        {
            "name": "PackageManager/Server",
            "oss_licenses": "MIT",
            "provenance": "https://github.com/felixge/node-combined-stream",
            "license": "combined-stream | MIT License\nCopyright (c) 2011 Debuggable Limited <felix@debuggable.com>",
            "purpose": "A stream that emits multiple other streams one after another."
        },
        {
            "name": "PackageManager/Server",
            "oss_licenses": "MIT",
            "provenance": "https://github.com/tj/commander.js",
            "license": "commander | MIT License\nCopyright (c) 2011 TJ Holowaychuk <tj@vision-media.ca>",
            "purpose": "the complete solution for node.js command-line programs"
        },
        {
            "name": "PackageManager/Server",
            "oss_licenses": "MIT",
            "provenance": "https://github.com/component/emitter",
            "license": "component-emitter | MIT License\nCopyright (c) 2014 Component contributors <dev@component.io>",
            "purpose": "Event emitter"
        },
        {
            "name": "PackageManager/Server",
            "oss_licenses": "MIT",
            "provenance": "https://github.com/substack/node-concat-map",
            "license": "concat-map | MIT License",
            "purpose": "concatenative mapdashery"
        },
        {
            "name": "PackageManager/Server",
            "oss_licenses": "MIT",
            "provenance": "https://github.com/maxogden/concat-stream",
            "license": "concat-stream | MIT License\nCopyright (c) 2013 Max Ogden",
            "purpose": "writable stream that concatenates strings or binary data and calls a callback with the result"
        },
        {
            "name": "PackageManager/Server",
            "oss_licenses": "MIT",
            "provenance": "https://github.com/lorenwest/node-config",
            "license": "config | MIT License",
            "purpose": "Configuration control for production node deployments"
        },
        {
            "name": "PackageManager/Server",
            "oss_licenses": "MIT",
            "provenance": "https://github.com/senchalabs/connect",
            "license": "connect | MIT License\nCopyright (c) 2010 Sencha Inc.. Copyright (c) 2011 LearnBoost. Copyright (c) 2011-2014 TJ Holowaychuk. Copyright (c) 2015 Douglas Christopher Wilson",
            "purpose": "High performance middleware framework"
        },
        {
            "name": "PackageManager/Server",
            "oss_licenses": "MIT",
            "provenance": "https://github.com/jshttp/content-type",
            "license": "content-type | MIT License\nCopyright (c) 2015 Douglas Christopher Wilson",
            "purpose": "Create and parse HTTP Content-Type header"
        },
        {
            "name": "PackageManager/Server",
            "oss_licenses": "MIT",
            "provenance": "https://github.com/mikermcneil/convert-to-ecmascript-compatible-varname",
            "license": "convert-to-ecmascript-compatible-varname | MIT License",
            "purpose": "Given a string of dash-delimited words, return a similar version of the string, but which is camel-cased and otherwise stripped of special characters, whitespace, etc. so that it is usable as an ECMAScript variable."
        },
        {
            "name": "PackageManager/Server",
            "oss_licenses": "MIT",
            "provenance": "https://github.com/bmeck/node-cookiejar",
            "license": "cookiejar | MIT License",
            "purpose": "simple persistent cookiejar system"
        },
        {
            "name": "PackageManager/Server",
            "oss_licenses": "MIT",
            "provenance": "https://github.com/zloirock/core-js",
            "license": "core-js | MIT License\nCopyright (c) 2014-2019 Denis Pushkarev",
            "purpose": "Standard library"
        },
        {
            "name": "PackageManager/Server",
            "oss_licenses": "MIT",
            "provenance": "https://github.com/isaacs/core-util-is",
            "license": "core-util-is | MIT License\nCopyright Node.js contributors. All rights reserved.",
            "purpose": "The `util.is*` functions introduced in Node v0.12."
        },
        {
            "name": "PackageManager/Server",
            "oss_licenses": "MIT",
            "provenance": "https://github.com/expressjs/cors",
            "license": "cors | MIT License\nCopyright (c) 2013 Troy Goode <troygoode@gmail.com>",
            "purpose": "Node.js CORS middleware"
        },
        {
            "name": "PackageManager/Server",
            "oss_licenses": "MIT",
            "provenance": "https://github.com/IndigoUnited/node-cross-spawn",
            "license": "cross-spawn | MIT License\nCopyright (c) 2014 IndigoUnited",
            "purpose": "Cross platform child_process#spawn and child_process#spawnSync"
        },
        {
            "name": "PackageManager/Server",
            "oss_licenses": "Custom: https://github.com/douglascrockford/JSON-js",
            "provenance": "https://github.com/dscape/cycle",
            "license": "cycle | Custom: https://github.com/douglascrockford/JSON-js License",
            "purpose": "decycle your json"
        },
        {
            "name": "PackageManager/Server",
            "oss_licenses": "MIT",
            "provenance": "https://github.com/trentm/node-dashdash",
            "license": "dashdash | MIT License\nCopyright (c) 2013 Trent Mick. All rights reserved.. Copyright (c) 2013 Joyent Inc. All rights reserved.",
            "purpose": "A light, featureful and explicit option parsing library."
        },
        {
            "name": "PackageManager/Server",
            "oss_licenses": "MIT",
            "provenance": "https://github.com/visionmedia/debug",
            "license": "debug | MIT License\nCopyright (c) 2014 TJ Holowaychuk <tj@vision-media.ca>",
            "purpose": "small debugging utility"
        },
        {
            "name": "PackageManager/Server",
            "oss_licenses": "MIT",
            "provenance": "https://github.com/visionmedia/debug",
            "license": "debug | MIT License\nCopyright (c) 2014 TJ Holowaychuk <tj@vision-media.ca>",
            "purpose": "small debugging utility"
        },
        {
            "name": "PackageManager/Server",
            "oss_licenses": "MIT",
            "provenance": "https://github.com/unclechu/node-deep-extend",
            "license": "deep-extend | MIT License\nCopyright (c) 2013-2015, Viacheslav Lotsmanov",
            "purpose": "Recursive object extending"
        },
        {
            "name": "PackageManager/Server",
            "oss_licenses": "MIT",
            "provenance": "https://github.com/felixge/node-delayed-stream",
            "license": "delayed-stream | MIT License\nCopyright (c) 2011 Debuggable Limited <felix@debuggable.com>",
            "purpose": "Buffers events from a stream until you are ready to handle them."
        },
        {
            "name": "PackageManager/Server",
            "oss_licenses": "MIT",
            "provenance": "https://github.com/dougwilson/nodejs-depd",
            "license": "depd | MIT License\nCopyright (c) 2014-2017 Douglas Christopher Wilson",
            "purpose": "Deprecate all the things"
        },
        {
            "name": "PackageManager/Server",
            "oss_licenses": "MIT",
            "provenance": "https://github.com/json-schema-faker/deref",
            "license": "deref | MIT License\nCopyright (c) 2014-2015 Alvaro Cabrera",
            "purpose": "JSON-Schema $ref resolution"
        },
        {
            "name": "PackageManager/Server",
            "oss_licenses": "MIT",
            "provenance": "https://github.com/mscdex/dicer",
            "license": "dicer | MIT License\nCopyright Brian White. All rights reserved.",
            "purpose": "A very fast streaming multipart parser for node.js"
        },
        {
            "name": "PackageManager/Server",
            "oss_licenses": "MIT",
            "provenance": "https://github.com/fent/node-drange",
            "license": "drange | MIT License\nCopyright (c) 2014 David Tudury",
            "purpose": "For adding, subtracting, and indexing discontinuous ranges of numbers"
        },
        {
            "name": "PackageManager/Server",
            "oss_licenses": "MIT",
            "provenance": "https://github.com/quartzjer/ecc-jsbn",
            "license": "ecc-jsbn | MIT License\nCopyright (c) 2014 Jeremie Miller",
            "purpose": "ECC JS code based on JSBN"
        },
        {
            "name": "PackageManager/Server",
            "oss_licenses": "MIT",
            "provenance": "https://github.com/jonathanong/ee-first",
            "license": "ee-first | MIT License\nCopyright (c) 2014 Jonathan Ong me@jongleberry.com",
            "purpose": "return the first event in a set of ee/event pairs"
        },
        {
            "name": "PackageManager/Server",
            "oss_licenses": "MIT",
            "provenance": "https://github.com/pillarjs/encodeurl",
            "license": "encodeurl | MIT License\nCopyright (c) 2016 Douglas Christopher Wilson",
            "purpose": "Encode a URL to a percent-encoded form, excluding already-encoded sequences"
        },
        {
            "name": "PackageManager/Server",
            "oss_licenses": "MIT",
            "provenance": "https://github.com/qix-/node-error-ex",
            "license": "error-ex | MIT License\nCopyright (c) 2015 JD Ballard",
            "purpose": "Easy error subclassing and stack customization"
        },
        {
            "name": "PackageManager/Server",
            "oss_licenses": "MIT",
            "provenance": "https://github.com/component/escape-html",
            "license": "escape-html | MIT License\nCopyright (c) 2012-2013 TJ Holowaychuk. Copyright (c) 2015 Andreas Lubbe. Copyright (c) 2015 Tiancheng \"Timothy\" Gu",
            "purpose": "Escape string for use in HTML"
        },
        {
            "name": "PackageManager/Server",
            "oss_licenses": "BSD-2-Clause",
            "provenance": "https://github.com/jquery/esprima",
            "license": "esprima | BSD-2-Clause License\nCopyright JS Foundation and other contributors, https://js.foundation/",
            "purpose": "ECMAScript parsing infrastructure for multipurpose analysis"
        },
        {
            "name": "PackageManager/Server",
            "oss_licenses": "MIT",
            "provenance": "https://github.com/justmoon/node-extend",
            "license": "extend | MIT License\nCopyright (c) 2014 Stefan Thomas",
            "purpose": "Port of jQuery.extend for node.js and the browser"
        },
        {
            "name": "PackageManager/Server",
            "oss_licenses": "MIT",
            "provenance": "https://github.com/davepacheco/node-extsprintf",
            "license": "extsprintf | MIT License\nCopyright (c) 2012, Joyent, Inc. All rights reserved.",
            "purpose": "extended POSIX-style sprintf"
        },
        {
            "name": "PackageManager/Server",
            "oss_licenses": "MIT",
            "license": "eyes | MIT License\nCopyright (c) 2009 cloudhead",
            "purpose": "a customizable value inspector"
        },
        {
            "name": "PackageManager/Server",
            "oss_licenses": "MIT",
            "provenance": "https://github.com/Marak/Faker.js",
            "license": "faker | MIT License",
            "purpose": "Generate massive amounts of fake contextual data"
        },
        {
            "name": "PackageManager/Server",
            "oss_licenses": "MIT",
            "provenance": "https://github.com/epoberezkin/fast-deep-equal",
            "license": "fast-deep-equal | MIT License\nCopyright (c) 2017 Evgeny Poberezkin",
            "purpose": "Fast deep equal"
        },
        {
            "name": "PackageManager/Server",
            "oss_licenses": "MIT",
            "provenance": "https://github.com/epoberezkin/fast-json-stable-stringify",
            "license": "fast-json-stable-stringify | MIT License",
            "purpose": "deterministic `JSON.stringify()` - a faster version of substack's json-stable-strigify without jsonify"
        },
        {
            "name": "PackageManager/Server",
            "oss_licenses": "MIT",
            "provenance": "https://github.com/pillarjs/finalhandler",
            "license": "finalhandler | MIT License\nCopyright (c) 2014-2017 Douglas Christopher Wilson <doug@somethingdoug.com>",
            "purpose": "Node.js final http responder"
        },
        {
            "name": "PackageManager/Server",
            "oss_licenses": "Apache-2.0",
            "provenance": "https://github.com/mikeal/forever-agent",
            "license": "forever-agent | Apache-2.0 License",
            "purpose": "HTTP Agent that keeps socket connections alive between keep-alive requests. Formerly part of mikeal/request, now a standalone module."
        },
        {
            "name": "PackageManager/Server",
            "oss_licenses": "MIT",
            "provenance": "https://github.com/form-data/form-data",
            "license": "form-data | MIT License\nCopyright (c) 2012 Felix Geisendörfer (felix@debuggable.com) and contributors",
            "purpose": "A library to create readable \"multipart/form-data\" streams. Can be used to submit forms and file uploads to other web applications."
        },
        {
            "name": "PackageManager/Server",
            "oss_licenses": "MIT",
            "provenance": "https://github.com/felixge/node-formidable",
            "license": "formidable | MIT License\nCopyright (C) 2011 Felix Geisendörfer",
            "purpose": "A node.js module for parsing form data, especially file uploads."
        },
        {
            "name": "PackageManager/Server",
            "oss_licenses": "MIT",
            "provenance": "https://github.com/jprichardson/node-fs-extra",
            "license": "fs-extra | MIT License\nCopyright (c) 2011-2017 JP Richardson",
            "purpose": "fs-extra contains methods that aren't included in the vanilla Node.js fs package. Such as mkdir -p, cp -r, and rm -rf."
        },
        {
            "name": "PackageManager/Server",
            "oss_licenses": "ISC",
            "provenance": "https://github.com/npm/fs-minipass",
            "license": "fs-minipass | ISC License\nCopyright (c) Isaac Z. Schlueter and Contributors",
            "purpose": "fs read and write streams based on minipass"
        },
        {
            "name": "PackageManager/Server",
            "oss_licenses": "ISC",
            "provenance": "https://github.com/isaacs/fs.realpath",
            "license": "fs.realpath | ISC License\nCopyright (c) Isaac Z. Schlueter and Contributors",
            "purpose": "Use node's fs.realpath, but fall back to the JS implementation if the native one fails"
        },
        {
            "name": "PackageManager/Server",
            "oss_licenses": "MIT",
            "provenance": "https://github.com/arekinath/node-getpass",
            "license": "getpass | MIT License\nCopyright Joyent, Inc. All rights reserved.. Permission is hereby granted, free of charge, to any person obtaining a copy. of this software and associated documentation files (the \"Software\"), to. deal in the Software without restriction, including without limitation the. rights to use, copy, modify, merge, publish, distribute, sublicense, and/or. sell copies of the Software, and to permit persons to whom the Software is. furnished to do so, subject to the following conditions:",
            "purpose": "getpass for node.js"
        },
        {
            "name": "PackageManager/Server",
            "oss_licenses": "MIT",
            "provenance": "https://github.com/roccivic/glob-hash",
            "license": "glob-hash | MIT License\nCopyright (c) 2015-2016 Rouslan Placella (https://github.com/roccivic)",
            "purpose": "npm module to hash the contents of files matched by globs"
        },
        {
            "name": "PackageManager/Server",
            "oss_licenses": "ISC",
            "provenance": "https://github.com/ahmadnassri/glob-promise",
            "license": "glob-promise | ISC License\nCopyright (c) 2015, Ahmad Nassri <ahmad@ahmadnassri.com>",
            "purpose": "Promise version of glob"
        },
        {
            "name": "PackageManager/Server",
            "oss_licenses": "ISC",
            "provenance": "https://github.com/isaacs/node-glob",
            "license": "glob | ISC License\nCopyright (c) Isaac Z. Schlueter and Contributors",
            "purpose": "a little globber"
        },
        {
            "name": "PackageManager/Server",
            "oss_licenses": "ISC",
            "provenance": "https://github.com/isaacs/node-graceful-fs",
            "license": "graceful-fs | ISC License\nCopyright (c) Isaac Z. Schlueter, Ben Noordhuis, and Contributors",
            "purpose": "A drop-in replacement for fs, making various improvements."
        },
        {
            "name": "PackageManager/Server",
            "oss_licenses": "MIT",
            "provenance": "https://github.com/dagrejs/graphlib",
            "license": "graphlib | MIT License\nCopyright (c) 2012-2014 Chris Pettitt",
            "purpose": "A directed and undirected multi-graph library"
        },
        {
            "name": "PackageManager/Server",
            "oss_licenses": "ISC",
            "provenance": "https://github.com/ahmadnassri/har-schema",
            "license": "har-schema | ISC License\nCopyright (c) 2015, Ahmad Nassri <ahmad@ahmadnassri.com>",
            "purpose": "JSON Schema for HTTP Archive (HAR)"
        },
        {
            "name": "PackageManager/Server",
            "oss_licenses": "MIT",
            "provenance": "https://github.com/ahmadnassri/node-har-validator",
            "license": "har-validator | MIT License\nCopyright (c) 2018 Ahmad Nassri <ahmad@ahmadnassri.com>",
            "purpose": "Extremely fast HTTP Archive (HAR) validator using JSON Schema"
        },
        {
            "name": "PackageManager/Server",
            "oss_licenses": "MIT",
            "provenance": "https://github.com/jshttp/http-errors",
            "license": "http-errors | MIT License\nCopyright (c) 2014 Jonathan Ong me@jongleberry.com. Copyright (c) 2016 Douglas Christopher Wilson doug@somethingdoug.com",
            "purpose": "Create HTTP error objects"
        },
        {
            "name": "PackageManager/Server",
            "oss_licenses": "MIT",
            "provenance": "https://github.com/joyent/node-http-signature",
            "license": "http-signature | MIT License\nCopyright Joyent, Inc. All rights reserved.. Permission is hereby granted, free of charge, to any person obtaining a copy. of this software and associated documentation files (the \"Software\"), to. deal in the Software without restriction, including without limitation the. rights to use, copy, modify, merge, publish, distribute, sublicense, and/or. sell copies of the Software, and to permit persons to whom the Software is. furnished to do so, subject to the following conditions:",
            "purpose": "Reference implementation of Joyent's HTTP Signature scheme."
        },
        {
            "name": "PackageManager/Server",
            "oss_licenses": "MIT",
            "provenance": "https://github.com/ashtuchkin/iconv-lite",
            "license": "iconv-lite | MIT License\nCopyright (c) 2011 Alexander Shtuchkin",
            "purpose": "Convert character encodings in pure javascript."
        },
        {
            "name": "PackageManager/Server",
            "oss_licenses": "MIT",
            "provenance": "https://github.com/ashtuchkin/iconv-lite",
            "license": "iconv-lite | MIT License\nCopyright (c) 2011 Alexander Shtuchkin",
            "purpose": "Convert character encodings in pure javascript."
        },
        {
            "name": "PackageManager/Server",
            "oss_licenses": "ISC",
            "provenance": "https://github.com/isaacs/ignore-walk",
            "license": "ignore-walk | ISC License\nCopyright (c) Isaac Z. Schlueter and Contributors",
            "purpose": "Nested/recursive `.gitignore`/`.npmignore` parsing and filtering."
        },
        {
            "name": "PackageManager/Server",
            "oss_licenses": "MIT",
            "provenance": "https://github.com/jensyt/imurmurhash-js",
            "license": "imurmurhash | MIT License",
            "purpose": "An incremental implementation of MurmurHash3"
        },
        {
            "name": "PackageManager/Server",
            "oss_licenses": "MIT",
            "provenance": "https://github.com/sindresorhus/indent-string",
            "license": "indent-string | MIT License\nCopyright (c) Sindre Sorhus <sindresorhus@gmail.com> (sindresorhus.com)",
            "purpose": "Indent each line in a string"
        },
        {
            "name": "PackageManager/Server",
            "oss_licenses": "ISC",
            "provenance": "https://github.com/npm/inflight",
            "license": "inflight | ISC License\nCopyright (c) Isaac Z. Schlueter",
            "purpose": "Add callbacks to requests in flight to avoid async duplication"
        },
        {
            "name": "PackageManager/Server",
            "oss_licenses": "ISC",
            "provenance": "https://github.com/isaacs/inherits",
            "license": "inherits | ISC License\nCopyright (c) Isaac Z. Schlueter",
            "purpose": "Browser-friendly inheritance fully compatible with standard node.js inherits()"
        },
        {
            "name": "PackageManager/Server",
            "oss_licenses": "ISC",
            "provenance": "https://github.com/isaacs/inherits",
            "license": "inherits | ISC License\nCopyright (c) Isaac Z. Schlueter",
            "purpose": "Browser-friendly inheritance fully compatible with standard node.js inherits()"
        },
        {
            "name": "PackageManager/Server",
            "oss_licenses": "MIT",
            "provenance": "https://github.com/qix-/node-is-arrayish",
            "license": "is-arrayish | MIT License\nCopyright (c) 2015 JD Ballard",
            "purpose": "Determines if an object can be used as an array"
        },
        {
            "name": "PackageManager/Server",
            "oss_licenses": "MIT",
            "provenance": "https://github.com/hughsk/is-typedarray",
            "license": "is-typedarray | MIT License",
            "purpose": "Detect whether or not an object is a Typed Array"
        },
        {
            "name": "PackageManager/Server",
            "oss_licenses": "MIT",
            "provenance": "https://github.com/juliangruber/isarray",
            "license": "isarray | MIT License\nCopyright (c) 2013 Julian Gruber &lt;julian@juliangruber.com&gt;",
            "purpose": "Array#isArray for older browsers"
        },
        {
            "name": "PackageManager/Server",
            "oss_licenses": "MIT",
            "provenance": "https://github.com/juliangruber/isarray",
            "license": "isarray | MIT License\nCopyright (c) 2013 Julian Gruber &lt;julian@juliangruber.com&gt;",
            "purpose": "Array#isArray for older browsers"
        },
        {
            "name": "PackageManager/Server",
            "oss_licenses": "ISC",
            "provenance": "https://github.com/isaacs/isexe",
            "license": "isexe | ISC License\nCopyright (c) Isaac Z. Schlueter and Contributors",
            "purpose": "Minimal module to check if a file is executable."
        },
        {
            "name": "PackageManager/Server",
            "oss_licenses": "MIT",
            "provenance": "https://github.com/rvagg/isstream",
            "license": "isstream | MIT License\nCopyright (c) 2015 Rod Vagg. ---------------------------",
            "purpose": "Determine if an object is a Stream"
        },
        {
            "name": "PackageManager/Server",
            "oss_licenses": "BSD-3-Clause",
            "provenance": "https://github.com/dankogai/js-base64",
            "license": "js-base64 | BSD-3-Clause License\nCopyright (c) 2014, Dan Kogai. All rights reserved.",
            "purpose": "Yet another Base64 transcoder in pure-JS"
        },
        {
            "name": "PackageManager/Server",
            "oss_licenses": "MIT",
            "provenance": "https://github.com/nodeca/js-yaml",
            "license": "js-yaml | MIT License\nCopyright (C) 2011-2015 by Vitaly Puzrin",
            "purpose": "YAML 1.2 parser and serializer"
        },
        {
            "name": "PackageManager/Server",
            "oss_licenses": "MIT",
            "provenance": "https://github.com/andyperlitch/jsbn",
            "license": "jsbn | MIT License",
            "purpose": "The jsbn library is a fast, portable implementation of large-number math in pure JavaScript, enabling public-key crypto and other applications on desktop and mobile browsers."
        },
        {
            "name": "PackageManager/Server",
            "oss_licenses": "MIT",
            "provenance": "https://github.com/jackyjieliu/json-dup-key-validator",
            "license": "json-dup-key-validator | MIT License\nCopyright (c) 2016 Jie Liu (Jacky)",
            "purpose": "A json validator that has an option to check for duplicated keys"
        },
        {
            "name": "PackageManager/Server",
            "oss_licenses": "MIT",
            "provenance": "https://github.com/whitlockjc/json-refs",
            "license": "json-refs | MIT License\nCopyright (c) 2014 Jeremy Whitlock",
            "purpose": "Various utilities for JSON References (http://tools.ietf.org/html/draft-pbryan-zyp-json-ref-03)."
        },
        {
            "name": "PackageManager/Server",
            "oss_licenses": "MIT",
            "provenance": "https://github.com/json-schema-faker/json-schema-faker",
            "license": "json-schema-faker | MIT License\nCopyright (c) 2014-2016 Alvaro Cabrera & Tomasz Ducin",
            "purpose": "JSON-Schema + fake data generators"
        },
        {
            "name": "PackageManager/Server",
            "oss_licenses": "MIT",
            "provenance": "https://github.com/epoberezkin/json-schema-traverse",
            "license": "json-schema-traverse | MIT License\nCopyright (c) 2017 Evgeny Poberezkin",
            "purpose": "Traverse JSON Schema passing each schema object to callback"
        },
        {
            "name": "PackageManager/Server",
            "oss_licenses": "BSD",
            "provenance": "https://github.com/kriszyp/json-schema",
            "license": "json-schema | BSD License",
            "purpose": "JSON Schema validation and specifications"
        },
        {
            "name": "PackageManager/Server",
            "oss_licenses": "ISC",
            "provenance": "https://github.com/isaacs/json-stringify-safe",
            "license": "json-stringify-safe | ISC License\nCopyright (c) Isaac Z. Schlueter and Contributors",
            "purpose": "Like JSON.stringify, but doesn't blow up on circular refs."
        },
        {
            "name": "PackageManager/Server",
            "oss_licenses": "MIT",
            "provenance": "https://github.com/json5/json5",
            "license": "json5 | MIT License\nCopyright (c) 2012-2018 Aseem Kishore, and [others].",
            "purpose": "JSON for humans."
        },
        {
            "name": "PackageManager/Server",
            "oss_licenses": "MIT",
            "provenance": "https://github.com/jprichardson/node-jsonfile",
            "license": "jsonfile | MIT License\nCopyright (c) 2012-2015, JP Richardson <jprichardson@gmail.com>",
            "purpose": "Easily read/write JSON files."
        },
        {
            "name": "PackageManager/Server",
            "oss_licenses": "MIT",
            "provenance": "https://github.com/dfilatov/jspath",
            "license": "jspath | MIT License\nCopyright (c) 2012 Dmitry Filatov",
            "purpose": "DSL that enables you to navigate and find data within your JSON documents"
        },
        {
            "name": "PackageManager/Server",
            "oss_licenses": "MIT",
            "provenance": "https://github.com/joyent/node-jsprim",
            "license": "jsprim | MIT License\nCopyright (c) 2012, Joyent, Inc. All rights reserved.",
            "purpose": "utilities for primitive JavaScript types"
        },
        {
            "name": "PackageManager/Server",
            "oss_licenses": "MIT",
            "provenance": "https://github.com/retroverse/klaw-promise",
            "license": "klaw-promise | MIT License\nCopyright (c) 2017 Ewan Breakey",
            "purpose": "'Klaw' wrapped with promises"
        },
        {
            "name": "PackageManager/Server",
            "oss_licenses": "MIT",
            "provenance": "https://github.com/jprichardson/node-klaw",
            "license": "klaw | MIT License\nCopyright (c) 2015-2016 JP Richardson",
            "purpose": "File system walker with Readable stream interface."
        },
        {
            "name": "PackageManager/Server",
            "oss_licenses": "MIT",
            "provenance": "https://github.com/lodash/lodash",
            "license": "lodash.get | MIT License\nCopyright jQuery Foundation and other contributors <https://jquery.org/>",
            "purpose": "The lodash method `_.get` exported as a module."
        },
        {
            "name": "PackageManager/Server",
            "oss_licenses": "MIT",
            "provenance": "https://github.com/lodash/lodash",
            "license": "lodash.isequal | MIT License\nCopyright JS Foundation and other contributors <https://js.foundation/>",
            "purpose": "The Lodash method `_.isEqual` exported as a module."
        },
        {
            "name": "PackageManager/Server",
            "oss_licenses": "MIT",
            "provenance": "https://github.com/lodash/lodash",
            "license": "lodash | MIT License\nCopyright 2012-2013 The Dojo Foundation <http://dojofoundation.org/>. Based on Underscore.js 1.5.2, copyright 2009-2013 Jeremy Ashkenas,. DocumentCloud and Investigative Reporters & Editors <http://underscorejs.org/>",
            "purpose": "A utility library delivering consistency, customization, performance, & extras."
        },
        {
            "name": "PackageManager/Server",
            "oss_licenses": "MIT",
            "provenance": "https://github.com/lodash/lodash",
            "license": "lodash | MIT License\nCopyright 2012-2015 The Dojo Foundation <http://dojofoundation.org/>. Based on Underscore.js, copyright 2009-2015 Jeremy Ashkenas,. DocumentCloud and Investigative Reporters & Editors <http://underscorejs.org/>",
            "purpose": "The modern build of lodash modular utilities."
        },
        {
            "name": "PackageManager/Server",
            "oss_licenses": "MIT",
            "provenance": "https://github.com/lodash/lodash",
            "license": "lodash | MIT License\nCopyright OpenJS Foundation and other contributors <https://openjsf.org/>",
            "purpose": "Lodash modular utilities."
        },
        {
            "name": "PackageManager/Server",
            "oss_licenses": "MIT",
            "provenance": "https://github.com/meteor/logic-solver",
            "license": "logic-solver | MIT License\nCopyright (c) 2015 Meteor Development Group",
            "purpose": "General satisfiability solver for logic problems"
        },
        {
            "name": "PackageManager/Server",
            "oss_licenses": "ISC",
            "provenance": "https://github.com/isaacs/node-lru-cache",
            "license": "lru-cache | ISC License\nCopyright (c) Isaac Z. Schlueter and Contributors",
            "purpose": "A cache object that deletes the least-recently-used items."
        },
        {
            "name": "PackageManager/Server",
            "oss_licenses": "MIT",
            "provenance": "https://github.com/node-machine/machine",
            "license": "machine | MIT License",
            "purpose": "Configure and execute machines"
        },
        {
            "name": "PackageManager/Server",
            "oss_licenses": "MIT",
            "provenance": "https://github.com/node-machine/machine",
            "license": "machine | MIT License",
            "purpose": "Configure and execute machines"
        },
        {
            "name": "PackageManager/Server",
            "oss_licenses": "MIT",
            "provenance": "https://github.com/mikermcneil/machinepack-http",
            "license": "machinepack-http | MIT License",
            "purpose": "Send an HTTP request."
        },
        {
            "name": "PackageManager/Server",
            "oss_licenses": "MIT",
            "provenance": "https://github.com/mikermcneil/machinepack-urls",
            "license": "machinepack-urls | MIT License",
            "purpose": "Machines for working with URL strings."
        },
        {
            "name": "PackageManager/Server",
            "oss_licenses": "MIT",
            "provenance": "https://github.com/jshttp/media-typer",
            "license": "media-typer | MIT License\nCopyright (c) 2014 Douglas Christopher Wilson",
            "purpose": "Simple RFC 6838 media type parser and formatter"
        },
        {
            "name": "PackageManager/Server",
            "oss_licenses": "MIT",
            "provenance": "https://github.com/jshttp/methods",
            "license": "methods | MIT License\nCopyright (c) 2013-2014 TJ Holowaychuk <tj@vision-media.ca>. Copyright (c) 2015-2016 Douglas Christopher Wilson <doug@somethingdoug.com>",
            "purpose": "HTTP methods that node supports"
        },
        {
            "name": "PackageManager/Server",
            "oss_licenses": "MIT",
            "provenance": "https://github.com/jshttp/mime-db",
            "license": "mime-db | MIT License\nCopyright (c) 2014 Jonathan Ong me@jongleberry.com",
            "purpose": "Media Type Database"
        },
        {
            "name": "PackageManager/Server",
            "oss_licenses": "MIT",
            "provenance": "https://github.com/jshttp/mime-types",
            "license": "mime-types | MIT License\nCopyright (c) 2014 Jonathan Ong <me@jongleberry.com>. Copyright (c) 2015 Douglas Christopher Wilson <doug@somethingdoug.com>",
            "purpose": "The ultimate javascript content-type utility."
        },
        {
            "name": "PackageManager/Server",
            "oss_licenses": "MIT",
            "provenance": "https://github.com/broofa/node-mime",
            "license": "mime | MIT License\nCopyright (c) 2010 Benjamin Thomas, Robert Kieffer",
            "purpose": "A comprehensive library for mime-type mapping"
        },
        {
            "name": "PackageManager/Server",
            "oss_licenses": "ISC",
            "provenance": "https://github.com/isaacs/minimatch",
            "license": "minimatch | ISC License\nCopyright (c) Isaac Z. Schlueter and Contributors",
            "purpose": "a glob matcher in javascript"
        },
        {
            "name": "PackageManager/Server",
            "oss_licenses": "MIT",
            "provenance": "https://github.com/substack/minimist",
            "license": "minimist | MIT License",
            "purpose": "parse argument options"
        },
        {
            "name": "PackageManager/Server",
            "oss_licenses": "MIT",
            "provenance": "https://github.com/substack/minimist",
            "license": "minimist | MIT License",
            "purpose": "parse argument options"
        },
        {
            "name": "PackageManager/Server",
            "oss_licenses": "ISC",
            "provenance": "https://github.com/isaacs/minipass",
            "license": "minipass | ISC License\nCopyright (c) npm, Inc. and Contributors",
            "purpose": "minimal implementation of a PassThrough stream"
        },
        {
            "name": "PackageManager/Server",
            "oss_licenses": "MIT",
            "provenance": "https://github.com/isaacs/minizlib",
            "license": "minizlib | MIT License",
            "purpose": "A small fast zlib stream built on [minipass](http://npm.im/minipass) and Node.js's zlib binding."
        },
        {
            "name": "PackageManager/Server",
            "oss_licenses": "MIT",
            "provenance": "https://github.com/substack/node-mkdirp",
            "license": "mkdirp | MIT License\nCopyright 2010 James Halliday (mail@substack.net)",
            "purpose": "Recursively mkdir, like `mkdir -p`"
        },
        {
            "name": "PackageManager/Server",
            "oss_licenses": "MIT",
            "provenance": "https://github.com/zeit/ms",
            "license": "ms | MIT License\nCopyright (c) 2016 Zeit, Inc.",
            "purpose": "Tiny milisecond conversion utility"
        },
        {
            "name": "PackageManager/Server",
            "oss_licenses": "MIT",
            "provenance": "https://github.com/zeit/ms",
            "license": "ms | MIT License\nCopyright (c) 2016 Zeit, Inc.",
            "purpose": "Tiny millisecond conversion utility"
        },
        {
            "name": "PackageManager/Server",
            "oss_licenses": "MIT",
            "provenance": "https://github.com/expressjs/multer",
            "license": "multer | MIT License\nCopyright (c) 2014 Hage Yaapa <[http://www.hacksparrow.com](http://www.hacksparrow.com)>",
            "purpose": "Middleware for handling `multipart/form-data`."
        },
        {
            "name": "PackageManager/Server",
            "oss_licenses": "MIT",
            "provenance": "https://github.com/janl/mustache.js",
            "license": "mustache | MIT License\nCopyright (c) 2009 Chris Wanstrath (Ruby). Copyright (c) 2010-2014 Jan Lehnardt (JavaScript). Copyright (c) 2010-2015 The mustache.js community",
            "purpose": "Logic-less {{mustache}} templates with JavaScript"
        },
        {
            "name": "PackageManager/Server",
            "oss_licenses": "MIT",
            "provenance": "https://github.com/getify/native-promise-only",
            "license": "native-promise-only | MIT License",
            "purpose": "Native Promise Only: A polyfill for native ES6 Promises **only**, nothing else."
        },
        {
            "name": "PackageManager/Server",
            "oss_licenses": "MIT",
            "provenance": "https://github.com/rzcoder/node-rsa",
            "license": "node-rsa | MIT License\nCopyright (c) 2014  rzcoder<br/>*",
            "purpose": "Node.js RSA library"
        },
        {
            "name": "PackageManager/Server",
            "oss_licenses": "MIT",
            "provenance": "https://github.com/srod/node-version",
            "license": "node-version | MIT License\nCopyright (c) 2018 Rodolphe Stoclin",
            "purpose": "Get Node current version"
        },
        {
            "name": "PackageManager/Server",
            "oss_licenses": "MIT",
            "provenance": "https://github.com/sindresorhus/normalize-url",
            "license": "normalize-url | MIT License\nCopyright (c) Sindre Sorhus <sindresorhus@gmail.com> (sindresorhus.com)",
            "purpose": "Normalize a URL"
        },
        {
            "name": "PackageManager/Server",
            "oss_licenses": "ISC",
            "provenance": "https://github.com/npm/npm-bundled",
            "license": "npm-bundled | ISC License\nCopyright (c) npm, Inc. and Contributors",
            "purpose": "list things in node_modules that are bundledDependencies, or transitive dependencies thereof"
        },
        {
            "name": "PackageManager/Server",
            "oss_licenses": "ISC",
            "provenance": "https://github.com/npm/npm-normalize-package-bin",
            "license": "npm-normalize-package-bin | ISC License\nCopyright (c) npm, Inc.",
            "purpose": "Turn any flavor of allowable package.json bin into a normalized object"
        },
        {
            "name": "PackageManager/Server",
            "oss_licenses": "ISC",
            "provenance": "https://github.com/npm/npm-packlist",
            "license": "npm-packlist | ISC License\nCopyright (c) Isaac Z. Schlueter and Contributors",
            "purpose": "Get a list of the files to add from a folder into an npm package"
        },
        {
            "name": "PackageManager/Server",
            "oss_licenses": "Apache-2.0",
            "provenance": "https://github.com/mikeal/oauth-sign",
            "license": "oauth-sign | Apache-2.0 License",
            "purpose": "OAuth 1 signing. Formerly a vendor lib in mikeal/request, now a standalone module."
        },
        {
            "name": "PackageManager/Server",
            "oss_licenses": "MIT",
            "provenance": "https://github.com/sindresorhus/object-assign",
            "license": "object-assign | MIT License\nCopyright (c) Sindre Sorhus <sindresorhus@gmail.com> (sindresorhus.com)",
            "purpose": "ES2015 `Object.assign()` ponyfill"
        },
        {
            "name": "PackageManager/Server",
            "oss_licenses": "MIT",
            "provenance": "https://github.com/puleos/object-hash",
            "license": "object-hash | MIT License",
            "purpose": "Generate hashes from javascript objects in node and the browser."
        },
        {
            "name": "PackageManager/Server",
            "oss_licenses": "MIT",
            "provenance": "https://github.com/jshttp/on-finished",
            "license": "on-finished | MIT License\nCopyright (c) 2013 Jonathan Ong <me@jongleberry.com>. Copyright (c) 2014 Douglas Christopher Wilson <doug@somethingdoug.com>",
            "purpose": "Execute a callback when a request closes, finishes, or errors"
        },
        {
            "name": "PackageManager/Server",
            "oss_licenses": "ISC",
            "provenance": "https://github.com/isaacs/once",
            "license": "once | ISC License\nCopyright (c) Isaac Z. Schlueter and Contributors",
            "purpose": "Run a function exactly one time"
        },
        {
            "name": "PackageManager/Server",
            "oss_licenses": "MIT",
            "provenance": "https://github.com/jonschlinkert/parse-author",
            "license": "parse-author | MIT License\nCopyright (c) 2014-2017, Jon Schlinkert",
            "purpose": "Parse an author, contributor, maintainer or other 'person' string into an object with name, email and url properties following npm conventions."
        },
        {
            "name": "PackageManager/Server",
            "oss_licenses": "MIT",
            "provenance": "https://github.com/sindresorhus/parse-json",
            "license": "parse-json | MIT License\nCopyright (c) Sindre Sorhus <sindresorhus@gmail.com> (sindresorhus.com)",
            "purpose": "Parse JSON with more helpful errors"
        },
        {
            "name": "PackageManager/Server",
            "oss_licenses": "MIT",
            "provenance": "https://github.com/pillarjs/parseurl",
            "license": "parseurl | MIT License\nCopyright (c) 2014 Jonathan Ong <me@jongleberry.com>. Copyright (c) 2014-2017 Douglas Christopher Wilson <doug@somethingdoug.com>",
            "purpose": "parse a url with memoization"
        },
        {
            "name": "PackageManager/Server",
            "oss_licenses": "MIT",
            "provenance": "https://github.com/sindresorhus/path-is-absolute",
            "license": "path-is-absolute | MIT License\nCopyright (c) Sindre Sorhus <sindresorhus@gmail.com> (sindresorhus.com)",
            "purpose": "Node.js 0.12 path.isAbsolute() ponyfill"
        },
        {
            "name": "PackageManager/Server",
            "oss_licenses": "MIT",
            "provenance": "https://github.com/whitlockjc/path-loader",
            "license": "path-loader | MIT License\nCopyright (c) 2015 Jeremy Whitlock",
            "purpose": "Utility that provides a single API for loading the content of a path/URL."
        },
        {
            "name": "PackageManager/Server",
            "oss_licenses": "MIT",
            "provenance": "https://github.com/pillarjs/path-to-regexp",
            "license": "path-to-regexp | MIT License\nCopyright (c) 2014 Blake Embrey (hello@blakeembrey.com)",
            "purpose": "Express style path to RegExp utility"
        },
        {
            "name": "PackageManager/Server",
            "oss_licenses": "MIT",
            "provenance": "https://github.com/braveg1rl/performance-now",
            "license": "performance-now | MIT License\nCopyright (c) 2013 Braveg1rl",
            "purpose": "Implements performance.now (based on process.hrtime)."
        },
        {
            "name": "PackageManager/Server",
            "oss_licenses": "MIT",
            "provenance": "https://github.com/kevinswiber/pipeworks",
            "license": "pipeworks | MIT License\nCopyright 2013 Kevin Swiber and other contributors",
            "purpose": "Modularize functionality into execution pipelines. Create pipes. Fit 'em together. Start the flow!"
        },
        {
            "name": "PackageManager/Server",
            "oss_licenses": "MIT",
            "provenance": "https://github.com/calvinmetcalf/process-nextick-args",
            "license": "process-nextick-args | MIT License",
            "purpose": "process.nextTick but always with args"
        },
        {
            "name": "PackageManager/Server",
            "oss_licenses": "MIT",
            "provenance": "git+https://taylorhakes@github.com/taylorhakes/promise-polyfill",
            "license": "promise-polyfill | MIT License\nCopyright (c) 2014 Taylor Hakes. Copyright (c) 2014 Forbes Lindesay",
            "purpose": "Lightweight promise polyfill. A+ compliant"
        },
        {
            "name": "PackageManager/Server",
            "oss_licenses": "ISC",
            "provenance": "https://github.com/isaacs/pseudomap",
            "license": "pseudomap | ISC License\nCopyright (c) Isaac Z. Schlueter and Contributors",
            "purpose": "A thing that is a lot like ES6 `Map`, but without iterators, for use in environments where `for..of` syntax and `Map` are not available."
        },
        {
            "name": "PackageManager/Server",
            "oss_licenses": "MIT",
            "provenance": "https://github.com/lupomontero/psl",
            "license": "psl | MIT License\nCopyright (c) 2017 Lupo Montero lupomontero@gmail.com",
            "purpose": "Domain name parser based on the Public Suffix List"
        },
        {
            "name": "PackageManager/Server",
            "oss_licenses": "MIT",
            "provenance": "https://github.com/bestiejs/punycode.js",
            "license": "punycode | MIT License\nCopyright Mathias Bynens <https://mathiasbynens.be/>",
            "purpose": "A robust Punycode converter that fully complies to RFC 3492 and RFC 5891, and works on nearly all JavaScript platforms."
        },
        {
            "name": "PackageManager/Server",
            "oss_licenses": "MIT",
            "provenance": "https://github.com/bestiejs/punycode.js",
            "license": "punycode | MIT License\nCopyright Mathias Bynens <https://mathiasbynens.be/>",
            "purpose": "A robust Punycode converter that fully complies to RFC 3492 and RFC 5891, and works on nearly all JavaScript platforms."
        },
        {
            "name": "PackageManager/Server",
            "oss_licenses": "MIT",
            "provenance": "https://github.com/kriskowal/q",
            "license": "q | MIT License\nCopyright 2009–2017 Kristopher Michael Kowal. All rights reserved.. Permission is hereby granted, free of charge, to any person obtaining a copy. of this software and associated documentation files (the \"Software\"), to. deal in the Software without restriction, including without limitation the. rights to use, copy, modify, merge, publish, distribute, sublicense, and/or. sell copies of the Software, and to permit persons to whom the Software is. furnished to do so, subject to the following conditions:",
            "purpose": "A library for promises (CommonJS/Promises/A,B,D)"
        },
        {
            "name": "PackageManager/Server",
            "oss_licenses": "BSD-3-Clause",
            "provenance": "https://github.com/ljharb/qs",
            "license": "qs | BSD-3-Clause License\nCopyright (c) 2014 Nathan LaFreniere and other contributors.. All rights reserved.",
            "purpose": "A querystring parser that supports nesting and arrays, with a depth limit"
        },
        {
            "name": "PackageManager/Server",
            "oss_licenses": "BSD-3-Clause",
            "provenance": "https://github.com/ljharb/qs",
            "license": "qs | BSD-3-Clause License\nCopyright (c) 2014 Nathan LaFreniere and other contributors.. All rights reserved.",
            "purpose": "A querystring parser that supports nesting and arrays, with a depth limit"
        },
        {
            "name": "PackageManager/Server",
            "oss_licenses": "MIT",
            "provenance": "https://github.com/fent/randexp.js",
            "license": "randexp | MIT License\nCopyright (C) 2011 by fent",
            "purpose": "Create random strings that match a given regular expression."
        },
        {
            "name": "PackageManager/Server",
            "oss_licenses": "MIT",
            "provenance": "https://github.com/stream-utils/raw-body",
            "license": "raw-body | MIT License\nCopyright (c) 2013-2014 Jonathan Ong <me@jongleberry.com>. Copyright (c) 2014-2015 Douglas Christopher Wilson <doug@somethingdoug.com>",
            "purpose": "Get and validate the raw body of a readable stream."
        },
        {
            "name": "PackageManager/Server",
            "oss_licenses": "MIT",
            "provenance": "https://github.com/isaacs/readable-stream",
            "license": "readable-stream | MIT License\nCopyright Joyent, Inc. and other Node contributors. All rights reserved.. Permission is hereby granted, free of charge, to any person obtaining a copy. of this software and associated documentation files (the \"Software\"), to. deal in the Software without restriction, including without limitation the. rights to use, copy, modify, merge, publish, distribute, sublicense, and/or. sell copies of the Software, and to permit persons to whom the Software is. furnished to do so, subject to the following conditions:",
            "purpose": "Streams3, a user-land copy of the stream library from Node.js v0.11.x"
        },
        {
            "name": "PackageManager/Server",
            "oss_licenses": "MIT",
            "provenance": "https://github.com/nodejs/readable-stream",
            "license": "readable-stream | MIT License",
            "purpose": "Streams3, a user-land copy of the stream library from Node.js"
        },
        {
            "name": "PackageManager/Server",
            "oss_licenses": "Apache-2.0",
            "provenance": "https://github.com/request/request",
            "license": "request | Apache-2.0 License",
            "purpose": "Simplified HTTP request client."
        },
        {
            "name": "PackageManager/Server",
            "oss_licenses": "MIT",
            "provenance": "https://github.com/fent/ret.js",
            "license": "ret | MIT License\nCopyright (C) 2011 by fent",
            "purpose": "Tokenizes a string that represents a regular expression."
        },
        {
            "name": "PackageManager/Server",
            "oss_licenses": "ISC",
            "provenance": "https://github.com/isaacs/rimraf",
            "license": "rimraf | ISC License\nCopyright (c) Isaac Z. Schlueter and Contributors",
            "purpose": "A deep deletion module for node (like `rm -rf`)"
        },
        {
            "name": "PackageManager/Server",
            "oss_licenses": "MIT",
            "provenance": "https://github.com/node-machine/rttc",
            "license": "rttc | MIT License",
            "purpose": "Runtime type-checking for JavaScript."
        },
        {
            "name": "PackageManager/Server",
            "oss_licenses": "MIT",
            "provenance": "https://github.com/node-machine/rttc",
            "license": "rttc | MIT License",
            "purpose": "Runtime type-checking for JavaScript."
        },
        {
            "name": "PackageManager/Server",
            "oss_licenses": "MIT",
            "provenance": "https://github.com/feross/safe-buffer",
            "license": "safe-buffer | MIT License\nCopyright (c) Feross Aboukhadijeh",
            "purpose": "Safer Node.js Buffer API"
        },
        {
            "name": "PackageManager/Server",
            "oss_licenses": "MIT",
            "provenance": "https://github.com/feross/safe-buffer",
            "license": "safe-buffer | MIT License\nCopyright (c) Feross Aboukhadijeh",
            "purpose": "Safer Node.js Buffer API"
        },
        {
            "name": "PackageManager/Server",
            "oss_licenses": "MIT",
            "provenance": "https://github.com/ChALkeR/safer-buffer",
            "license": "safer-buffer | MIT License\nCopyright (c) 2018 Nikita Skovoroda <chalkerx@gmail.com>",
            "purpose": "Modern Buffer API polyfill without footguns"
        },
        {
            "name": "PackageManager/Server",
            "oss_licenses": "ISC",
            "provenance": "https://github.com/npm/node-semver",
            "license": "semver | ISC License\nCopyright (c) Isaac Z. Schlueter and Contributors",
            "purpose": "The semantic version parser used by npm."
        },
        {
            "name": "PackageManager/Server",
            "oss_licenses": "ISC",
            "provenance": "https://github.com/wesleytodd/setprototypeof",
            "license": "setprototypeof | ISC License\nCopyright (c) 2015, Wes Todd",
            "purpose": "A small polyfill for Object.setprototypeof"
        },
        {
            "name": "PackageManager/Server",
            "oss_licenses": "(BSD-2-Clause OR MIT)",
            "provenance": "https://github.com/ForbesLindesay/sha",
            "license": "sha | (BSD-2-Clause OR MIT) License\nCopyright (c) 2013 Forbes Lindesay",
            "purpose": "Check and get file hashes"
        },
        {
            "name": "PackageManager/Server",
            "oss_licenses": "ISC",
            "provenance": "https://github.com/tapjs/signal-exit",
            "license": "signal-exit | ISC License\nCopyright (c) 2015, Contributors",
            "purpose": "when you want to fire an event no matter how a process exits."
        },
        {
            "name": "PackageManager/Server",
            "oss_licenses": "MIT",
            "provenance": "https://github.com/sindresorhus/slash",
            "license": "slash | MIT License",
            "purpose": "Convert Windows backslash paths to slash paths"
        },
        {
            "name": "PackageManager/Server",
            "oss_licenses": "BSD-3-Clause",
            "provenance": "https://github.com/alexei/sprintf.js",
            "license": "sprintf-js | BSD-3-Clause License\nCopyright (c) 2007-2014, Alexandru Marasteanu <hello [at) alexei (dot] ro>. All rights reserved.",
            "purpose": "JavaScript sprintf implementation"
        },
        {
            "name": "PackageManager/Server",
            "oss_licenses": "MIT",
            "provenance": "https://github.com/joyent/node-sshpk",
            "license": "sshpk | MIT License\nCopyright Joyent, Inc. All rights reserved.. Permission is hereby granted, free of charge, to any person obtaining a copy. of this software and associated documentation files (the \"Software\"), to. deal in the Software without restriction, including without limitation the. rights to use, copy, modify, merge, publish, distribute, sublicense, and/or. sell copies of the Software, and to permit persons to whom the Software is. furnished to do so, subject to the following conditions:",
            "purpose": "A library for finding and using SSH public keys"
        },
        {
            "name": "PackageManager/Server",
            "oss_licenses": "MIT",
            "provenance": "https://github.com/felixge/node-stack-trace",
            "license": "stack-trace | MIT License\nCopyright (c) 2011 Felix Geisendörfer (felix@debuggable.com)",
            "purpose": "Get v8 stack traces as an array of CallSite objects."
        },
        {
            "name": "PackageManager/Server",
            "oss_licenses": "MIT",
            "provenance": "https://github.com/jshttp/statuses",
            "license": "statuses | MIT License\nCopyright (c) 2014 Jonathan Ong <me@jongleberry.com>. Copyright (c) 2016 Douglas Christopher Wilson <doug@somethingdoug.com>",
            "purpose": "HTTP status utility"
        },
        {
            "name": "PackageManager/Server",
            "oss_licenses": "MIT",
            "provenance": "https://github.com/mscdex/streamsearch",
            "license": "streamsearch | MIT License\nCopyright Brian White. All rights reserved.",
            "purpose": "Streaming Boyer-Moore-Horspool searching for node.js"
        },
        {
            "name": "PackageManager/Server",
            "oss_licenses": "MIT",
            "provenance": "https://github.com/rvagg/string_decoder",
            "license": "string_decoder | MIT License\nCopyright Joyent, Inc. and other Node contributors.",
            "purpose": "The string_decoder module from Node core"
        },
        {
            "name": "PackageManager/Server",
            "oss_licenses": "MIT",
            "provenance": "https://github.com/nodejs/string_decoder",
            "license": "string_decoder | MIT License",
            "purpose": "The string_decoder module from Node core"
        },
        {
            "name": "PackageManager/Server",
            "oss_licenses": "MIT",
            "provenance": "https://github.com/visionmedia/superagent",
            "license": "superagent | MIT License\nCopyright (c) 2014-2016 TJ Holowaychuk <tj@vision-media.ca>",
            "purpose": "elegant & feature rich browser / node HTTP with a fluent API"
        },
        {
            "name": "PackageManager/Server",
            "oss_licenses": "MIT",
            "provenance": "https://github.com/apigee-127/swagger-connect",
            "license": "swagger-connect | MIT License",
            "purpose": "Swagger loader and middleware for connect"
        },
        {
            "name": "PackageManager/Server",
            "oss_licenses": "MIT",
            "provenance": "https://github.com/APIDevTools/swagger-methods",
            "license": "swagger-methods | MIT License\nCopyright (c) 2015 James Messinger",
            "purpose": "HTTP methods that are supported by Swagger 2.0"
        },
        {
            "name": "PackageManager/Server",
            "oss_licenses": "MIT",
            "provenance": "https://github.com/theganyo/swagger-node-runner",
            "license": "swagger-node-runner | MIT License\nCopyright (c) 2015 Apigee Corporation",
            "purpose": "Swagger loader and middleware utilities"
        },
        {
            "name": "PackageManager/Server",
            "oss_licenses": "ISC",
            "license": "swagger-schema-official | ISC License",
            "purpose": "Swagger JSON Schema "
        },
        {
            "name": "PackageManager/Server",
            "oss_licenses": "MIT",
            "provenance": "https://github.com/apigee-127/sway",
            "license": "sway | MIT License\nCopyright (c) 2015 Apigee Corporation",
            "purpose": "A library that simplifies Swagger integrations."
        },
        {
            "name": "PackageManager/Server",
            "oss_licenses": "MIT",
            "provenance": "https://github.com/node-machine/switchback",
            "license": "switchback | MIT License\nCopyright (c) 2013 Mike McNeil",
            "purpose": "Normalize callback fns to switchbacks and vice versa"
        },
        {
            "name": "PackageManager/Server",
            "oss_licenses": "MIT",
            "provenance": "https://github.com/node-machine/switchback",
            "license": "switchback | MIT License\nCopyright (c) 2013 Mike McNeil",
            "purpose": "Normalize callback fns to switchbacks and vice versa"
        },
        {
            "name": "PackageManager/Server",
            "oss_licenses": "MIT",
            "provenance": "https://github.com/sebhildebrandt/systeminformation",
            "license": "systeminformation | MIT License\nCopyright (c) 2014-2020 Sebastian Hildebrandt",
            "purpose": "Simple system and OS information library"
        },
        {
            "name": "PackageManager/Server",
            "oss_licenses": "ISC",
            "provenance": "https://github.com/npm/node-tar",
            "license": "tar | ISC License\nCopyright (c) Isaac Z. Schlueter and Contributors",
            "purpose": "tar for node"
        },
        {
            "name": "PackageManager/Server",
            "oss_licenses": "MIT",
            "provenance": "https://github.com/raszi/node-tmp",
            "license": "tmp | MIT License\nCopyright (c) 2014 KARASZI István",
            "purpose": "Temporary file and directory creator"
        },
        {
            "name": "PackageManager/Server",
            "oss_licenses": "MIT",
            "provenance": "https://github.com/component/toidentifier",
            "license": "toidentifier | MIT License\nCopyright (c) 2016 Douglas Christopher Wilson <doug@somethingdoug.com>",
            "purpose": "Convert a string of words to a JavaScript identifier"
        },
        {
            "name": "PackageManager/Server",
            "oss_licenses": "BSD-3-Clause",
            "provenance": "https://github.com/salesforce/tough-cookie",
            "license": "tough-cookie | BSD-3-Clause License\nCopyright (c) 2015, Salesforce.com, Inc.. All rights reserved.",
            "purpose": "RFC6265 Cookies and Cookie Jar for node.js"
        },
        {
            "name": "PackageManager/Server",
            "oss_licenses": "Apache-2.0",
            "provenance": "https://github.com/mikeal/tunnel-agent",
            "license": "tunnel-agent | Apache-2.0 License",
            "purpose": "HTTP proxy tunneling agent. Formerly part of mikeal/request, now a standalone module."
        },
        {
            "name": "PackageManager/Server",
            "oss_licenses": "Unlicense",
            "provenance": "https://github.com/dchest/tweetnacl-js",
            "license": "tweetnacl | Unlicense License",
            "purpose": "Port of TweetNaCl cryptographic library to JavaScript"
        },
        {
            "name": "PackageManager/Server",
            "oss_licenses": "MIT",
            "provenance": "https://github.com/jshttp/type-is",
            "license": "type-is | MIT License\nCopyright (c) 2014 Jonathan Ong <me@jongleberry.com>. Copyright (c) 2014-2015 Douglas Christopher Wilson <doug@somethingdoug.com>",
            "purpose": "Infer the content-type of a request."
        },
        {
            "name": "PackageManager/Server",
            "oss_licenses": "MIT",
            "provenance": "https://github.com/feross/typedarray-to-buffer",
            "license": "typedarray-to-buffer | MIT License\nCopyright (c) Feross Aboukhadijeh",
            "purpose": "Convert a typed array to a Buffer without a copy"
        },
        {
            "name": "PackageManager/Server",
            "oss_licenses": "MIT",
            "provenance": "https://github.com/substack/typedarray",
            "license": "typedarray | MIT License",
            "purpose": "TypedArray polyfill for old browsers"
        },
        {
            "name": "PackageManager/Server",
            "oss_licenses": "MIT",
            "provenance": "https://github.com/jashkenas/underscore",
            "license": "underscore | MIT License\nCopyright (c) 2009-2020 Jeremy Ashkenas, DocumentCloud and Investigative. Reporters & Editors",
            "purpose": "JavaScript's functional programming helper library."
        },
        {
            "name": "PackageManager/Server",
            "oss_licenses": "MIT",
            "provenance": "https://github.com/RyanZim/universalify",
            "license": "universalify | MIT License\nCopyright (c) 2017, Ryan Zimmerman <opensrc@ryanzim.com>",
            "purpose": "Make a callback- or promise-based function support both promises and callbacks."
        },
        {
            "name": "PackageManager/Server",
            "oss_licenses": "MIT",
            "provenance": "https://github.com/stream-utils/unpipe",
            "license": "unpipe | MIT License\nCopyright (c) 2015 Douglas Christopher Wilson <doug@somethingdoug.com>",
            "purpose": "Unpipe a stream from all destinations"
        },
        {
            "name": "PackageManager/Server",
            "oss_licenses": "BSD-2-Clause",
            "provenance": "https://github.com/garycourt/uri-js",
            "license": "uri-js | BSD-2-Clause License\nCopyright 2011 Gary Court. All rights reserved.",
            "purpose": "An RFC 3986/3987 compliant, scheme extendable URI/IRI parsing/validating/resolving library for JavaScript."
        },
        {
            "name": "PackageManager/Server",
            "oss_licenses": "BSD-2-Clause",
            "provenance": "https://github.com/garycourt/uri-js",
            "license": "uri-js | BSD-2-Clause License\nCopyright 2011 Gary Court. All rights reserved.",
            "purpose": "An RFC 3986/3987 compliant, scheme extendable URI/IRI parsing/validating/resolving library for JavaScript."
        },
        {
            "name": "PackageManager/Server",
            "oss_licenses": "MIT",
            "provenance": "https://github.com/TooTallNate/util-deprecate",
            "license": "util-deprecate | MIT License\nCopyright (c) 2014 Nathan Rajlich <nathan@tootallnate.net>",
            "purpose": "The Node.js `util.deprecate()` function with browser support"
        },
        {
            "name": "PackageManager/Server",
            "oss_licenses": "MIT",
            "provenance": "https://github.com/jaredhanson/utils-merge",
            "license": "utils-merge | MIT License\nCopyright (c) 2013-2017 Jared Hanson",
            "purpose": "merge() utility function"
        },
        {
            "name": "PackageManager/Server",
            "oss_licenses": "MIT",
            "provenance": "https://github.com/kelektiv/node-uuid",
            "license": "uuid | MIT License\nCopyright (c) 2010-2016 Robert Kieffer and other contributors",
            "purpose": "RFC4122 (v1, v4, and v5) UUIDs"
        },
        {
            "name": "PackageManager/Server",
            "oss_licenses": "MIT",
            "provenance": "https://github.com/chriso/validator.js",
            "license": "validator | MIT License\nCopyright (c) 2018 Chris O'Hara <cohara87@gmail.com>",
            "purpose": "String validation and sanitization"
        },
        {
            "name": "PackageManager/Server",
            "oss_licenses": "MIT",
            "provenance": "https://github.com/jshttp/vary",
            "license": "vary | MIT License\nCopyright (c) 2014-2017 Douglas Christopher Wilson",
            "purpose": "Manipulate the HTTP Vary header"
        },
        {
            "name": "PackageManager/Server",
            "oss_licenses": "MIT",
            "provenance": "https://github.com/davepacheco/node-verror",
            "license": "verror | MIT License\nCopyright (c) 2016, Joyent, Inc. All rights reserved.",
            "purpose": "richer JavaScript errors"
        },
        {
            "name": "PackageManager/Server",
            "oss_licenses": "ISC",
            "provenance": "https://github.com/isaacs/node-which",
            "license": "which | ISC License\nCopyright (c) Isaac Z. Schlueter and Contributors",
            "purpose": "Like which(1) unix command. Find the first instance of an executable in the PATH."
        },
        {
            "name": "PackageManager/Server",
            "oss_licenses": "ISC",
            "provenance": "https://github.com/isaacs/node-which",
            "license": "which | ISC License\nCopyright (c) Isaac Z. Schlueter and Contributors",
            "purpose": "Like which(1) unix command. Find the first instance of an executable in the PATH."
        },
        {
            "name": "PackageManager/Server",
            "oss_licenses": "MIT",
            "provenance": "https://github.com/winstonjs/winston",
            "license": "winston | MIT License\nCopyright (c) 2010 Charlie Robbins",
            "purpose": "A multi-transport async logging library for Node.js"
        },
        {
            "name": "PackageManager/Server",
            "oss_licenses": "ISC",
            "provenance": "https://github.com/npm/wrappy",
            "license": "wrappy | ISC License\nCopyright (c) Isaac Z. Schlueter and Contributors",
            "purpose": "Callback wrapping utility"
        },
        {
            "name": "PackageManager/Server",
            "oss_licenses": "ISC",
            "provenance": "https://github.com/npm/write-file-atomic",
            "license": "write-file-atomic | ISC License\nCopyright (c) 2015, Rebecca Turner",
            "purpose": "Write files in an atomic fashion w/configurable ownership"
        },
        {
            "name": "PackageManager/Server",
            "oss_licenses": "MIT",
            "provenance": "https://github.com/yaronn/xml-crypto",
            "license": "xml-crypto | MIT License\nCopyright (c) Yaron Naveh <yaronn01@gmail.com>",
            "purpose": "Xml digital signature and encryption library for Node.js"
        },
        {
            "name": "PackageManager/Server",
            "oss_licenses": "LGPL",
            "provenance": "https://github.com/jindw/xmldom",
            "license": "xmldom | LGPL License",
            "purpose": "A W3C Standard XML DOM(Level2 CORE) implementation and parser(DOMParser/XMLSerializer)."
        },
        {
            "name": "PackageManager/Server",
            "oss_licenses": "(LGPL-2.0 OR MIT)",
            "provenance": "https://github.com/xmldom/xmldom",
            "license": "xmldom | (LGPL-2.0 OR MIT) License",
            "purpose": "A pure JavaScript W3C standard-based (XML DOM Level 2 Core) DOMParser and XMLSerializer module."
        },
        {
            "name": "PackageManager/Server",
            "oss_licenses": "MIT",
            "provenance": "https://github.com/goto100/xpath",
            "license": "xpath | MIT License",
            "purpose": "DOM 3 XPath implemention and helper for node.js."
        },
        {
            "name": "PackageManager/Server",
            "oss_licenses": "MIT",
            "provenance": "https://github.com/Raynos/xtend",
            "license": "xtend | MIT License",
            "purpose": "extend like a boss"
        },
        {
            "name": "PackageManager/Server",
            "oss_licenses": "ISC",
            "provenance": "https://github.com/isaacs/yallist",
            "license": "yallist | ISC License\nCopyright (c) Isaac Z. Schlueter and Contributors",
            "purpose": "Yet Another Linked List"
        },
        {
            "name": "PackageManager/Server",
            "oss_licenses": "ISC",
            "provenance": "https://github.com/isaacs/yallist",
            "license": "yallist | ISC License\nCopyright (c) Isaac Z. Schlueter and Contributors",
            "purpose": "Yet Another Linked List"
        },
        {
            "name": "PackageManager/Server",
            "oss_licenses": "MIT",
            "provenance": "https://github.com/zaggino/z-schema",
            "license": "z-schema | MIT License\nCopyright (c) 2014 Martin Zagora and other contributors. https://github.com/zaggino/z-schema/graphs/contributors",
            "purpose": "JSON schema validator"
        }
    ]
}
